%YAML 1.1
%TAG !u! tag:unity3d.com,2011:
--- !u!78 &1
TagManager:
  serializedVersion: 2
  tags:
  - Platform
  layers:
  - Default
  - TransparentFX
  - Ignore Raycast
  - 
  - Water
  - UI
  - 
  - 
  - 
  - 
  - 
  - 
  - 
  - 
  - 
  - 
  - 
  - 
  - 
  - 
  - 
  - 
  - 
  - 
  - 
  - 
  - 
  - 
  - 
  - 
  - 
  - 
  m_SortingLayers:
  - name: fuera de la cocina
    uniqueID: 410099583
    locked: 0
  - name: fondo
    uniqueID: 237975671
    locked: 0
  - name: elementos
    uniqueID: 4224337919
    locked: 0
  - name: Default
    uniqueID: 0
    locked: 0
